[
  {
    "definitions_word_en": "in or to all places.",
    "id_lesson": "everywhere_e",
    "definitions_ex_en": "I\u0027ve looked everywhere",
    "definitions_ex_vn": "Tôi đã nhìn khắp nơi",
    "definitions_type_word": "adverb"
  },
  {
    "definitions_word_en": "all places or directions.",
    "id_lesson": "everywhere_e",
    "definitions_ex_en": "everywhere was in darkness",
    "definitions_ex_vn": "khắp nơi trong bóng tối",
    "definitions_type_word": "noun"
  }
]