[
  {
    "definitions_word_en": "give or order the giving of (something) as an official payment, compensation, or prize to (someone).",
    "id_lesson": "award_a",
    "definitions_ex_en": "he was awarded the Purple Heart",
    "definitions_ex_vn": "anh ấy đã được trao cho trái tim màu tím",
    "definitions_type_word": "verb"
  },
  {
    "definitions_word_en": "a prize or other mark of recognition given in honor of an achievement.",
    "id_lesson": "award_a",
    "definitions_ex_en": "the company\u0027s annual award for high-quality service",
    "definitions_ex_vn": "Giải thưởng hàng năm của công ty cho dịch vụ chất lượng cao",
    "definitions_type_word": "noun"
  }
]