[
  {
    "definitions_word_en": "a fixed luminous point in the night sky which is a large, remote incandescent body like the sun.",
    "id_lesson": "star_s",
    "definitions_ex_en": "",
    "definitions_ex_vn": "",
    "definitions_type_word": "noun"
  },
  {
    "definitions_word_en": "a conventional or stylized representation of a star, typically one having five or more points.",
    "id_lesson": "star_s",
    "definitions_ex_en": "the walls were painted with silver moons and stars",
    "definitions_ex_vn": "Các bức tường được vẽ bằng mặt trăng bạc và các ngôi sao",
    "definitions_type_word": "noun"
  },
  {
    "definitions_word_en": "a famous or exceptionally talented performer in the world of entertainment or sports.",
    "id_lesson": "star_s",
    "definitions_ex_en": "a pop star",
    "definitions_ex_vn": "một ngôi sao nhạc pop",
    "definitions_type_word": "noun"
  },
  {
    "definitions_word_en": "a planet, constellation, or configuration regarded as influencing someone\u0027s fortunes or personality.",
    "id_lesson": "star_s",
    "definitions_ex_en": "his golf destiny was written in the stars",
    "definitions_ex_vn": "Định mệnh golf của anh ta được viết trong những vì sao",
    "definitions_type_word": "noun"
  },
  {
    "definitions_word_en": "(of a movie, play, or other show) have (someone) as a principal performer.",
    "id_lesson": "star_s",
    "definitions_ex_en": "a film starring Liza Minnelli",
    "definitions_ex_vn": "Một bộ phim tham gia Liza Minnelli",
    "definitions_type_word": "verb"
  },
  {
    "definitions_word_en": "decorate or cover with star-shaped marks or objects.",
    "id_lesson": "star_s",
    "definitions_ex_en": "thick grass starred with flowers",
    "definitions_ex_vn": "Cỏ dày đóng vai chính với hoa",
    "definitions_type_word": "verb"
  }
]