[
  {
    "definitions_word_en": "a quantity of something, especially the total of a thing or things in number, size, value, or extent.",
    "id_lesson": "amount_a",
    "definitions_ex_en": "the sport gives an enormous amount of pleasure to many people",
    "definitions_ex_vn": "môn thể thao mang đến một niềm vui lớn cho nhiều người",
    "definitions_type_word": "noun"
  },
  {
    "definitions_word_en": "come to be (the total) when added together.",
    "id_lesson": "amount_a",
    "definitions_ex_en": "losses amounted to over 10 million dollars",
    "definitions_ex_vn": "Mất lỗ lên tới hơn 10 triệu đô la",
    "definitions_type_word": "verb"
  }
]