[
  {
    "definitions_word_en": "a load, typically a heavy one.",
    "id_lesson": "burden_b",
    "definitions_ex_en": "",
    "definitions_ex_vn": "",
    "definitions_type_word": "noun"
  },
  {
    "definitions_word_en": "the main theme or gist of a speech, book, or argument.",
    "id_lesson": "burden_b",
    "definitions_ex_en": "the burden of his views",
    "definitions_ex_vn": "gánh nặng quan điểm của mình",
    "definitions_type_word": "noun"
  },
  {
    "definitions_word_en": "the refrain or chorus of a song.",
    "id_lesson": "burden_b",
    "definitions_ex_en": "",
    "definitions_ex_vn": "",
    "definitions_type_word": "noun"
  },
  {
    "definitions_word_en": "load heavily.",
    "id_lesson": "burden_b",
    "definitions_ex_en": "she walked forward burdened with a wooden box",
    "definitions_ex_vn": "Cô bước về phía trước gánh nặng bằng một chiếc hộp gỗ",
    "definitions_type_word": "verb"
  }
]