[
  {
    "definitions_word_en": "act dishonestly or unfairly in order to gain an advantage, especially in a game or examination.",
    "id_lesson": "cheat_c",
    "definitions_ex_en": "she always cheats at cards",
    "definitions_ex_vn": "Cô ấy luôn lừa dối thẻ",
    "definitions_type_word": "verb"
  },
  {
    "definitions_word_en": "avoid (something undesirable) by luck or skill.",
    "id_lesson": "cheat_c",
    "definitions_ex_en": "she cheated death in a spectacular crash",
    "definitions_ex_vn": "Cô lừa dối cái chết trong một vụ tai nạn ngoạn mục",
    "definitions_type_word": "verb"
  },
  {
    "definitions_word_en": "a person who behaves dishonestly in order to gain an advantage.",
    "id_lesson": "cheat_c",
    "definitions_ex_en": "a liar and a cheat",
    "definitions_ex_vn": "một kẻ nói dối và một mánh gian lận",
    "definitions_type_word": "noun"
  }
]