[
  {
    "definitions_word_en": "at no time in the past or future; on no occasion; not ever.",
    "id_lesson": "never_n",
    "definitions_ex_en": "they had never been camping in their lives",
    "definitions_ex_vn": "họ chưa bao giờ cắm trại trong cuộc sống của họ",
    "definitions_type_word": "adverb"
  },
  {
    "definitions_word_en": "not at all.",
    "id_lesson": "never_n",
    "definitions_ex_en": "he never turned up",
    "definitions_ex_vn": "anh ấy không bao giờ bật lên",
    "definitions_type_word": "adverb"
  }
]