[
  {
    "definitions_word_en": "move forward in a purposeful way.",
    "id_lesson": "advance_a",
    "definitions_ex_en": "the troops advanced on the capital",
    "definitions_ex_vn": "Quân đội nâng cao về thủ đô",
    "definitions_type_word": "verb"
  },
  {
    "definitions_word_en": "make or cause to make progress.",
    "id_lesson": "advance_a",
    "definitions_ex_en": "our knowledge is advancing all the time",
    "definitions_ex_vn": "Kiến thức của chúng tôi là tiến bộ tất cả các thời gian",
    "definitions_type_word": "verb"
  },
  {
    "definitions_word_en": "put forward (a theory or suggestion).",
    "id_lesson": "advance_a",
    "definitions_ex_en": "the hypothesis I wish to advance in this article",
    "definitions_ex_vn": "Giả thuyết tôi muốn thăng tiến trong bài viết này",
    "definitions_type_word": "verb"
  },
  {
    "definitions_word_en": "lend (money) to (someone).",
    "id_lesson": "advance_a",
    "definitions_ex_en": "the bank advanced them a loan",
    "definitions_ex_vn": "Ngân hàng nâng cao họ một khoản vay",
    "definitions_type_word": "verb"
  },
  {
    "definitions_word_en": "a forward movement.",
    "id_lesson": "advance_a",
    "definitions_ex_en": "the rebels\u0027 advance on Madrid was well under way",
    "definitions_ex_vn": "Sự tiến bộ của phiến quân trên Madrid đang được tiến hành tốt",
    "definitions_type_word": "noun"
  },
  {
    "definitions_word_en": "a development or improvement.",
    "id_lesson": "advance_a",
    "definitions_ex_en": "genuine advances in engineering techniques",
    "definitions_ex_vn": "Những tiến bộ chính hãng trong kỹ thuật kỹ thuật",
    "definitions_type_word": "noun"
  },
  {
    "definitions_word_en": "an amount of money paid before it is due or for work only partly completed.",
    "id_lesson": "advance_a",
    "definitions_ex_en": "the author was paid a $250,000 advance",
    "definitions_ex_vn": "Tác giả đã được trả một khoản tạm ứng $ 250.000",
    "definitions_type_word": "noun"
  },
  {
    "definitions_word_en": "an approach made to someone, typically with the aim of initiating a sexual encounter.",
    "id_lesson": "advance_a",
    "definitions_ex_en": "women accused him of making improper advances",
    "definitions_ex_vn": "Phụ nữ buộc tội anh ta tiến bộ không đúng cách",
    "definitions_type_word": "noun"
  },
  {
    "definitions_word_en": "done, sent, or supplied beforehand.",
    "id_lesson": "advance_a",
    "definitions_ex_en": "advance notice",
    "definitions_ex_vn": "thông báo trước",
    "definitions_type_word": "adjective"
  }
]