[
  {
    "definitions_word_en": "a horse-drawn carriage, especially a closed one.",
    "id_lesson": "coach_c",
    "definitions_ex_en": "",
    "definitions_ex_vn": "",
    "definitions_type_word": "noun"
  },
  {
    "definitions_word_en": "a railroad car.",
    "id_lesson": "coach_c",
    "definitions_ex_en": "",
    "definitions_ex_vn": "",
    "definitions_type_word": "noun"
  },
  {
    "definitions_word_en": "a bus, especially one that is comfortably equipped and used for longer journeys.",
    "id_lesson": "coach_c",
    "definitions_ex_en": "",
    "definitions_ex_vn": "",
    "definitions_type_word": "noun"
  },
  {
    "definitions_word_en": "an athletic instructor or trainer.",
    "id_lesson": "coach_c",
    "definitions_ex_en": "a football coach",
    "definitions_ex_vn": "một huấn luyện viên bóng đá",
    "definitions_type_word": "noun"
  },
  {
    "definitions_word_en": "travel by coach.",
    "id_lesson": "coach_c",
    "definitions_ex_en": "they coached to Claude\u0027s dwelling",
    "definitions_ex_vn": "Họ huấn luyện đến nhà ở của Claude",
    "definitions_type_word": "verb"
  },
  {
    "definitions_word_en": "train or instruct (a team or player).",
    "id_lesson": "coach_c",
    "definitions_ex_en": "he has coached the Edmeston Panthers for six years",
    "definitions_ex_vn": "Ông đã huấn luyện Edmeston Panthers trong sáu năm",
    "definitions_type_word": "verb"
  }
]