[
  {
    "definitions_word_en": "arrange for compensation in the event of damage to or loss of (property), or injury to or the death of (someone), in exchange for regular advance payments to a company or government agency.",
    "id_lesson": "insure_i",
    "definitions_ex_en": "the table should be insured for $2,500",
    "definitions_ex_vn": "Bảng nên được bảo hiểm với giá $ 2,500",
    "definitions_type_word": "verb"
  },
  {
    "definitions_word_en": "secure or protect someone against (a possible contingency).",
    "id_lesson": "insure_i",
    "definitions_ex_en": "by appeasing Celia they might insure themselves against further misfortune",
    "definitions_ex_vn": "Bằng cách xoa dịu Celia họ có thể bảo đảm bản thân chống lại sự bất hạnh hơn nữa",
    "definitions_type_word": "verb"
  }
]