[
  {
    "definitions_word_en": "the amount of something that is permitted, especially within a set of regulations or for a specified purpose.",
    "id_lesson": "allowance_a",
    "definitions_ex_en": "a seventy-five-pound baggage allowance",
    "definitions_ex_vn": "một trợ cấp hành lý bảy mươi lăm bảng",
    "definitions_type_word": "noun"
  },
  {
    "definitions_word_en": "give (someone) a sum of money regularly as an allowance.",
    "id_lesson": "allowance_a",
    "definitions_ex_en": "",
    "definitions_ex_vn": "",
    "definitions_type_word": "verb"
  }
]