[
  {
    "definitions_word_en": "forming a necessary base or core; of central importance.",
    "id_lesson": "fundamental_f",
    "definitions_ex_en": "the protection of fundamental human rights",
    "definitions_ex_vn": "sự bảo vệ của nhân quyền cơ bản",
    "definitions_type_word": "adjective"
  },
  {
    "definitions_word_en": "a central or primary rule or principle on which something is based.",
    "id_lesson": "fundamental_f",
    "definitions_ex_en": "two courses cover the fundamentals of microbiology",
    "definitions_ex_vn": "Hai khóa học bao gồm các nguyên tắc cơ bản của vi sinh",
    "definitions_type_word": "noun"
  }
]