[
  {
    "definitions_word_en": "the state or quality of being dedicated to a cause, activity, etc.",
    "id_lesson": "commitment_c",
    "definitions_ex_en": "the company\u0027s commitment to quality",
    "definitions_ex_vn": "Cam kết chất lượng của công ty",
    "definitions_type_word": "noun"
  },
  {
    "definitions_word_en": "an engagement or obligation that restricts freedom of action.",
    "id_lesson": "commitment_c",
    "definitions_ex_en": "business commitments",
    "definitions_ex_vn": "Cam kết kinh doanh",
    "definitions_type_word": "noun"
  }
]