[
  {
    "definitions_word_en": "the ability to acquire and apply knowledge and skills.",
    "id_lesson": "intelligence_i",
    "definitions_ex_en": "an eminent man of great intelligence",
    "definitions_ex_vn": "một người đàn ông nổi tiếng của trí thông minh tuyệt vời",
    "definitions_type_word": "noun"
  },
  {
    "definitions_word_en": "the collection of information of military or political value.",
    "id_lesson": "intelligence_i",
    "definitions_ex_en": "the chief of military intelligence",
    "definitions_ex_vn": "Trưởng phòng Trí tuệ quân sự",
    "definitions_type_word": "noun"
  }
]