[
  {
    "definitions_word_en": "take part in a violent struggle involving the exchange of physical blows or the use of weapons.",
    "id_lesson": "fight_f",
    "definitions_ex_en": "the men were fighting",
    "definitions_ex_vn": "Những người đàn ông đang chiến đấu",
    "definitions_type_word": "verb"
  },
  {
    "definitions_word_en": "a violent confrontation or struggle.",
    "id_lesson": "fight_f",
    "definitions_ex_en": "we\u0027ll get into a fight and wind up with bloody noses",
    "definitions_ex_vn": "Chúng ta sẽ chiến đấu và gió lên với mũi đẫm máu",
    "definitions_type_word": "noun"
  }
]