[
  {
    "definitions_word_en": "a short piece of writing on a particular subject.",
    "id_lesson": "essay_e",
    "definitions_ex_en": "",
    "definitions_ex_vn": "",
    "definitions_type_word": "noun"
  },
  {
    "definitions_word_en": "an attempt or effort.",
    "id_lesson": "essay_e",
    "definitions_ex_en": "a misjudged essay",
    "definitions_ex_vn": "một bài luận sai lầm",
    "definitions_type_word": "noun"
  },
  {
    "definitions_word_en": "attempt or try.",
    "id_lesson": "essay_e",
    "definitions_ex_en": "essay a smile",
    "definitions_ex_vn": "Tiểu luận một nụ cười",
    "definitions_type_word": "verb"
  }
]