[
  {
    "definitions_word_en": "a person who is admired or idealized for courage, outstanding achievements, or noble qualities.",
    "id_lesson": "hero_h",
    "definitions_ex_en": "a war hero",
    "definitions_ex_vn": "Một anh hùng chiến tranh",
    "definitions_type_word": "noun"
  }
]