[
  {
    "definitions_word_en": "the external form, contours, or outline of someone or something.",
    "id_lesson": "shape_s",
    "definitions_ex_en": "she liked the shape of his nose",
    "definitions_ex_vn": "cô ấy thích hình dạng của mũi anh ấy",
    "definitions_type_word": "noun"
  },
  {
    "definitions_word_en": "a geometric figure such as a square, triangle, or rectangle.",
    "id_lesson": "shape_s",
    "definitions_ex_en": "",
    "definitions_ex_vn": "",
    "definitions_type_word": "noun"
  },
  {
    "definitions_word_en": "the correct or original form or contours of something.",
    "id_lesson": "shape_s",
    "definitions_ex_en": "her skirt had lost its shape long ago",
    "definitions_ex_vn": "Váy của cô đã mất hình dạng từ lâu",
    "definitions_type_word": "noun"
  },
  {
    "definitions_word_en": "the specified condition or state of someone or something.",
    "id_lesson": "shape_s",
    "definitions_ex_en": "most economists think the economy is in good shape",
    "definitions_ex_vn": "Hầu hết các nhà kinh tế nghĩ rằng nền kinh tế đang ở trong tình trạng tốt",
    "definitions_type_word": "noun"
  },
  {
    "definitions_word_en": "give a particular shape or form to.",
    "id_lesson": "shape_s",
    "definitions_ex_en": "most caves are shaped by the flow of water through limestone",
    "definitions_ex_vn": "Hầu hết các hang động được định hình bởi dòng nước qua đá vôi",
    "definitions_type_word": "verb"
  },
  {
    "definitions_word_en": "Supreme Headquarters Allied Powers Europe.",
    "id_lesson": "shape_s",
    "definitions_ex_en": "",
    "definitions_ex_vn": "",
    "definitions_type_word": "abbreviation"
  }
]