[
  {
    "definitions_word_en": "a colored fluid used for writing, drawing, printing, or duplicating.",
    "id_lesson": "ink_i",
    "definitions_ex_en": "the names are written in ink",
    "definitions_ex_vn": "Tên được viết bằng mực",
    "definitions_type_word": "noun"
  },
  {
    "definitions_word_en": "mark (words or a design) with ink.",
    "id_lesson": "ink_i",
    "definitions_ex_en": "the cork has the name of the château inked onto the side",
    "definitions_ex_vn": "Cork có tên của Château mực mực ở bên cạnh",
    "definitions_type_word": "verb"
  }
]