[
  {
    "definitions_word_en": "form or cause to form into a curved or spiral shape.",
    "id_lesson": "curl_c",
    "definitions_ex_en": "her fingers curled around the microphone",
    "definitions_ex_vn": "Những ngón tay của cô cuộn tròn xung quanh micro",
    "definitions_type_word": "verb"
  },
  {
    "definitions_word_en": "(in weight training) lift (a weight) using only the hands, wrists, and forearms.",
    "id_lesson": "curl_c",
    "definitions_ex_en": "slowly curl the barbell to shoulder height",
    "definitions_ex_vn": "Từ từ cuộn tròn đập vào chiều cao vai",
    "definitions_type_word": "verb"
  },
  {
    "definitions_word_en": "play at the game of curling.",
    "id_lesson": "curl_c",
    "definitions_ex_en": "during the severe spell in 1740, men curled on the pond",
    "definitions_ex_vn": "Trong câu thần chú nghiêm trọng vào năm 1740, những người đàn ông cuộn tròn trên ao",
    "definitions_type_word": "verb"
  },
  {
    "definitions_word_en": "something having a spiral or inwardly curved form, especially a lock of hair.",
    "id_lesson": "curl_c",
    "definitions_ex_en": "her blond hair was a mass of tangled curls",
    "definitions_ex_vn": "Tóc vàng của cô ấy là một khối các lọn tóc rối",
    "definitions_type_word": "noun"
  },
  {
    "definitions_word_en": "a weightlifting exercise involving movement of only the hands, wrists, and forearms.",
    "id_lesson": "curl_c",
    "definitions_ex_en": "a dumbbell curl",
    "definitions_ex_vn": "một curlbell",
    "definitions_type_word": "noun"
  },
  {
    "definitions_word_en": "the vector product of the operator del and a given vector.",
    "id_lesson": "curl_c",
    "definitions_ex_en": "",
    "definitions_ex_vn": "",
    "definitions_type_word": "noun"
  }
]