[
  {
    "definitions_word_en": "a person whose profession is acting on the stage, in movies, or on television.",
    "id_lesson": "actor_a",
    "definitions_ex_en": "",
    "definitions_ex_vn": "",
    "definitions_type_word": "noun"
  },
  {
    "definitions_word_en": "a participant in an action or process.",
    "id_lesson": "actor_a",
    "definitions_ex_en": "employers are key actors within industrial relations",
    "definitions_ex_vn": "Nhà tuyển dụng là diễn viên chính trong quan hệ công nghiệp",
    "definitions_type_word": "noun"
  }
]