[
  {
    "definitions_word_en": "a word or phrase used to describe a thing or to express a concept, especially in a particular kind of language or branch of study.",
    "id_lesson": "term_t",
    "definitions_ex_en": "the musical term “leitmotiv”",
    "definitions_ex_vn": "thuật ngữ âm nhạc \"leitmotiv\"",
    "definitions_type_word": "noun"
  },
  {
    "definitions_word_en": "a fixed or limited period for which something, e.g., office, imprisonment, or investment, lasts or is intended to last.",
    "id_lesson": "term_t",
    "definitions_ex_en": "",
    "definitions_ex_vn": "",
    "definitions_type_word": "noun"
  },
  {
    "definitions_word_en": "each of the periods in the year, alternating with holidays or vacations, during which instruction is given in a school, college, or university, or during which a court holds sessions.",
    "id_lesson": "term_t",
    "definitions_ex_en": "the summer term",
    "definitions_ex_vn": "Học kỳ mùa hè",
    "definitions_type_word": "noun"
  },
  {
    "definitions_word_en": "conditions under which an action may be undertaken or agreement reached; stipulated or agreed-upon requirements.",
    "id_lesson": "term_t",
    "definitions_ex_en": "he could only be dealt with on his own terms",
    "definitions_ex_vn": "anh ta chỉ có thể được xử lý theo cách riêng của mình",
    "definitions_type_word": "noun"
  },
  {
    "definitions_word_en": "each of the quantities in a ratio, series, or mathematical expression.",
    "id_lesson": "term_t",
    "definitions_ex_en": "",
    "definitions_ex_vn": "",
    "definitions_type_word": "noun"
  },
  {
    "definitions_word_en": "another term for terminus.",
    "id_lesson": "term_t",
    "definitions_ex_en": "",
    "definitions_ex_vn": "",
    "definitions_type_word": "noun"
  },
  {
    "definitions_word_en": "give a descriptive name to; call by a specified name.",
    "id_lesson": "term_t",
    "definitions_ex_en": "he has been termed the father of modern theology",
    "definitions_ex_vn": "Ông đã được gọi là cha đẻ của thần học hiện đại",
    "definitions_type_word": "verb"
  },
  {
    "definitions_word_en": "terminal.",
    "id_lesson": "term_t",
    "definitions_ex_en": "",
    "definitions_ex_vn": "",
    "definitions_type_word": "abbreviation"
  },
  {
    "definitions_word_en": "termination.",
    "id_lesson": "term_t",
    "definitions_ex_en": "",
    "definitions_ex_vn": "",
    "definitions_type_word": "abbreviation"
  }
]